4BitAdder/test/VCD_File.vcd
$date
	Wed Jan  3 11:51:07 2024
$end
$version
	Icarus Verilog
$end
$timescale
	1ps
$end
$scope module Adder4Module $end
$var wire 1 ! Adder0_io_cin $end
$var wire 1 " Adder1_io_cin $end
$var wire 1 # Adder2_io_cin $end
$var wire 1 $ Adder3_io_cin $end
$var wire 1 % clk $end
$var wire 4 & io_A [3:0] $end
$var wire 4 ' io_B [3:0] $end
$var wire 1 ( io_Cin $end
$var wire 1 ) io_Cout $end
$var wire 1 * reset $end
$var wire 3 + s2 [2:0] $end
$var wire 4 , io_Sum [3:0] $end
$var wire 1 - Adder3_io_sum $end
$var wire 1 . Adder3_io_cout $end
$var wire 1 / Adder3_io_b $end
$var wire 1 0 Adder3_io_a $end
$var wire 1 1 Adder2_io_sum $end
$var wire 1 2 Adder2_io_cout $end
$var wire 1 3 Adder2_io_b $end
$var wire 1 4 Adder2_io_a $end
$var wire 1 5 Adder1_io_sum $end
$var wire 1 6 Adder1_io_cout $end
$var wire 1 7 Adder1_io_b $end
$var wire 1 8 Adder1_io_a $end
$var wire 1 9 Adder0_io_sum $end
$var wire 1 : Adder0_io_cout $end
$var wire 1 ; Adder0_io_b $end
$var wire 1 < Adder0_io_a $end
$scope module Adder0 $end
$var wire 1 < io_a $end
$var wire 1 ; io_b $end
$var wire 1 ! io_cin $end
$var wire 1 : io_cout $end
$var wire 1 9 io_sum $end
$upscope $end
$scope module Adder1 $end
$var wire 1 8 io_a $end
$var wire 1 7 io_b $end
$var wire 1 " io_cin $end
$var wire 1 6 io_cout $end
$var wire 1 5 io_sum $end
$upscope $end
$scope module Adder2 $end
$var wire 1 4 io_a $end
$var wire 1 3 io_b $end
$var wire 1 # io_cin $end
$var wire 1 2 io_cout $end
$var wire 1 1 io_sum $end
$upscope $end
$scope module Adder3 $end
$var wire 1 0 io_a $end
$var wire 1 / io_b $end
$var wire 1 $ io_cin $end
$var wire 1 . io_cout $end
$var wire 1 - io_sum $end
$upscope $end
$upscope $end
$enddefinitions $end
#0
$dumpvars
0<
0;
0:
09
08
07
06
05
04
03
02
01
00
0/
0.
0-
b0 ,
b0 +
1*
0)
0(
b0 '
b0 &
0%
0$
0#
0"
0!
$end
#5000
1%
#10000
0%
#15000
b1 ,
b1 +
19
1;
b1 '
1%
0*
#20000
0%
#25000
09
b10 ,
b10 +
15
0;
17
b10 '
1%
#30000
0%
#35000
b11 ,
b11 +
19
1;
b11 '
1%
#40000
0%
#45000
09
05
b100 ,
b100 +
11
0;
07
13
b100 '
1%
#50000
0%
#55000
b101 ,
b101 +
19
1;
b101 '
1%
#60000
0%
#65000
09
b110 ,
b110 +
15
0;
17
b110 '
1%
#70000
0%
#75000
b111 ,
b111 +
19
1;
b111 '
1%
#80000
0%
#85000
09
05
b0 +
01
b1000 ,
1-
0;
07
03
1/
b1000 '
1%
#90000
0%
#95000
b1001 ,
b1 +
19
1;
b1001 '
1%
#100000
0%
#105000
09
b1010 ,
b10 +
15
0;
17
b1010 '
1%
#110000
0%
#115000
b1011 ,
b11 +
19
1;
b1011 '
1%
#120000
0%
#125000
09
05
b1100 ,
b100 +
11
0;
07
13
b1100 '
1%
#130000
0%
#135000
b1101 ,
b101 +
19
1;
b1101 '
1%
#140000
0%
#145000
09
b1110 ,
b110 +
15
0;
17
b1110 '
1%
#150000
0%
#155000
b1111 ,
b111 +
19
1;
b1111 '
1%
#160000
0%
#165000
05
b1 +
01
b1 ,
0-
0;
07
03
0/
1<
b0 '
b1 &
1%
#170000
0%
#175000
15
1"
1:
b10 ,
b10 +
09
1;
b1 '
1%
#180000
0%
#185000
01
0"
0:
0#
06
19
b11 ,
b11 +
15
0;
17
b10 '
1%
#190000
0%
#195000
11
1#
16
05
1"
1:
b100 ,
b100 +
09
1;
b11 '
1%
#200000
0%
#205000
0-
0"
0:
0#
06
0$
02
19
05
b101 ,
b101 +
11
0;
07
13
b100 '
1%
#210000
0%
#215000
15
1"
1:
b110 ,
b110 +
09
1;
b101 '
1%
#220000
0%
#225000
0-
0$
02
11
0"
0:
0#
06
19
b111 ,
b111 +
15
0;
17
b110 '
1%
#230000
0%
#235000
1-
1$
12
01
1#
16
05
1"
1:
b1000 ,
b0 +
09
1;
b111 '
1%
#240000
0%
#245000
0"
0:
0#
06
0$
02
0)
0.
19
05
b1 +
01
b1001 ,
1-
0;
07
03
1/
b1000 '
1%
#250000
0%
#255000
15
1"
1:
b1010 ,
b10 +
09
1;
b1001 '
1%
#260000
0%
#265000
01
0"
0:
0#
06
19
b1011 ,
b11 +
15
0;
17
b1010 '
1%
#270000
0%
#275000
11
1#
16
05
1"
1:
b1100 ,
b100 +
09
1;
b1011 '
1%
#280000
0%
#285000
0)
0.
1-
0"
0:
0#
06
0$
02
19
05
b1101 ,
b101 +
11
0;
07
13
b1100 '
1%
#290000
0%
#295000
15
1"
1:
b1110 ,
b110 +
09
1;
b1101 '
1%
#300000
0%
#305000
0)
0.
1-
0$
02
11
0"
0:
0#
06
19
b1111 ,
b111 +
15
0;
17
b1110 '
1%
#310000
0%
#315000
1)
1.
0-
1$
12
01
1#
16
05
1"
1:
b0 ,
b0 +
09
1;
b1111 '
1%
#320000
0%
#325000
0#
06
15
0$
02
0)
0.
0"
0:
b10 +
01
b10 ,
0-
0;
07
03
0/
0<
18
b0 '
b10 &
1%
#330000
0%
#335000
b11 ,
b11 +
19
1;
b1 '
1%
#340000
0%
#345000
11
1#
16
09
b100 ,
b100 +
05
0;
17
b10 '
1%
#350000
0%
#355000
b101 ,
b101 +
19
1;
b11 '
1%
#360000
0%
#365000
0-
0#
06
0$
02
09
15
b110 ,
b110 +
11
0;
07
13
b100 '
1%
#370000
0%
#375000
b111 ,
b111 +
19
1;
b101 '
1%
#380000
0%
#385000
1-
1$
12
01
1#
16
09
b1000 ,
b0 +
05
0;
17
b110 '
1%
#390000
0%
#395000
b1001 ,
b1 +
19
1;
b111 '
1%
#400000
0%
#405000
0#
06
0$
02
0)
0.
09
15
b10 +
01
b1010 ,
1-
0;
07
03
1/
b1000 '
1%
#410000
0%
#415000
b1011 ,
b11 +
19
1;
b1001 '
1%
#420000
0%
#425000
11
1#
16
09
b1100 ,
b100 +
05
0;
17
b1010 '
1%
#430000
0%
#435000
b1101 ,
b101 +
19
1;
b1011 '
1%
#440000
0%
#445000
0)
0.
1-
0#
06
0$
02
09
15
b1110 ,
b110 +
11
0;
07
13
b1100 '
1%
#450000
0%
#455000
b1111 ,
b111 +
19
1;
b1101 '
1%
#460000
0%
#465000
1)
1.
0-
1$
12
01
1#
16
09
b0 ,
b0 +
05
0;
17
b1110 '
1%
#470000
0%
#475000
b1 ,
b1 +
19
1;
b1111 '
1%
#480000
0%
#485000
0#
06
0$
02
0)
0.
15
b11 +
01
b11 ,
0-
0;
07
03
0/
1<
b0 '
b11 &
1%
#490000
0%
#495000
11
1#
16
05
1"
1:
b100 ,
b100 +
09
1;
b1 '
1%
#500000
0%
#505000
0"
0:
19
b101 ,
b101 +
05
0;
17
b10 '
1%
#510000
0%
#515000
15
1"
1:
b110 ,
b110 +
09
1;
b11 '
1%
#520000
0%
#525000
0#
06
0-
0"
0:
0$
02
19
15
b111 ,
b111 +
11
0;
07
13
b100 '
1%
#530000
0%
#535000
1-
1$
12
01
1#
16
05
1"
1:
b1000 ,
b0 +
09
1;
b101 '
1%
#540000
0%
#545000
0"
0:
19
b1001 ,
b1 +
05
0;
17
b110 '
1%
#550000
0%
#555000
15
1"
1:
b1010 ,
b10 +
09
1;
b111 '
1%
#560000
0%
#565000
0#
06
0"
0:
0$
02
0)
0.
19
15
b11 +
01
b1011 ,
1-
0;
07
03
1/
b1000 '
1%
#570000
0%
#575000
11
1#
16
05
1"
1:
b1100 ,
b100 +
09
1;
b1001 '
1%
#580000
0%
#585000
0"
0:
19
b1101 ,
b101 +
05
0;
17
b1010 '
1%
#590000
0%
#595000
15
1"
1:
b1110 ,
b110 +
09
1;
b1011 '
1%
#600000
0%
#605000
0)
0.
0#
06
1-
0"
0:
0$
02
19
15
b1111 ,
b111 +
11
0;
07
13
b1100 '
1%
#610000
0%
#615000
1)
1.
0-
1$
12
01
1#
16
05
1"
1:
b0 ,
b0 +
09
1;
b1101 '
1%
#620000
0%
#625000
0"
0:
19
b1 ,
b1 +
05
0;
17
b1110 '
1%
#630000
0%
#635000
15
1"
1:
b10 ,
b10 +
09
1;
b1111 '
1%
#640000
0%
#645000
0$
02
05
b100 +
11
0)
0.
0"
0:
0#
06
b100 ,
0-
0;
07
03
0/
0<
08
14
b0 '
b100 &
1%
#650000
0%
#655000
b101 ,
b101 +
19
1;
b1 '
1%
#660000
0%
#665000
09
b110 ,
b110 +
15
0;
17
b10 '
1%
#670000
0%
#675000
b111 ,
b111 +
19
1;
b11 '
1%
#680000
0%
#685000
1-
1$
12
09
05
b1000 ,
b0 +
01
0;
07
13
b100 '
1%
#690000
0%
#695000
b1001 ,
b1 +
19
1;
b101 '
1%
#700000
0%
#705000
09
b1010 ,
b10 +
15
0;
17
b110 '
1%
#710000
0%
#715000
b1011 ,
b11 +
19
1;
b111 '
1%
#720000
0%
#725000
0$
02
0)
0.
09
05
b100 +
11
b1100 ,
1-
0;
07
03
1/
b1000 '
1%
#730000
0%
#735000
b1101 ,
b101 +
19
1;
b1001 '
1%
#740000
0%
#745000
09
b1110 ,
b110 +
15
0;
17
b1010 '
1%
#750000
0%
#755000
b1111 ,
b111 +
19
1;
b1011 '
1%
#760000
0%
#765000
1)
1.
0-
1$
12
09
05
b0 ,
b0 +
01
0;
07
13
b1100 '
1%
#770000
0%
#775000
b1 ,
b1 +
19
1;
b1101 '
1%
#780000
0%
#785000
09
b10 ,
b10 +
15
0;
17
b1110 '
1%
#790000
0%
#795000
b11 ,
b11 +
19
1;
b1111 '
1%
#800000
0%
#805000
0$
02
0)
0.
05
b101 +
11
b101 ,
0-
0;
07
03
0/
1<
b0 '
b101 &
1%
#810000
0%
#815000
15
1"
1:
b110 ,
b110 +
09
1;
b1 '
1%
#820000
0%
#825000
0-
0$
02
11
0"
0:
0#
06
19
b111 ,
b111 +
15
0;
17
b10 '
1%
#830000
0%
#835000
1-
1$
12
01
1#
16
05
1"
1:
b1000 ,
b0 +
09
1;
b11 '
1%
#840000
0%
#845000
0"
0:
0#
06
19
05
b1001 ,
b1 +
01
0;
07
13
b100 '
1%
#850000
0%
#855000
15
1"
1:
b1010 ,
b10 +
09
1;
b101 '
1%
#860000
0%
#865000
01
0"
0:
0#
06
19
b1011 ,
b11 +
15
0;
17
b110 '
1%
#870000
0%
#875000
11
1#
16
05
1"
1:
b1100 ,
b100 +
09
1;
b111 '
1%
#880000
0%
#885000
0$
02
0"
0:
0#
06
0)
0.
19
05
b101 +
11
b1101 ,
1-
0;
07
03
1/
b1000 '
1%
#890000
0%
#895000
15
1"
1:
b1110 ,
b110 +
09
1;
b1001 '
1%
#900000
0%
#905000
0)
0.
1-
0$
02
11
0"
0:
0#
06
19
b1111 ,
b111 +
15
0;
17
b1010 '
1%
#910000
0%
#915000
1)
1.
0-
1$
12
01
1#
16
05
1"
1:
b0 ,
b0 +
09
1;
b1011 '
1%
#920000
0%
#925000
0"
0:
0#
06
19
05
b1 ,
b1 +
01
0;
07
13
b1100 '
1%
#930000
0%
#935000
15
1"
1:
b10 ,
b10 +
09
1;
b1101 '
1%
#940000
0%
#945000
01
0"
0:
0#
06
19
b11 ,
b11 +
15
0;
17
b1110 '
1%
#950000
0%
#955000
11
1#
16
05
1"
1:
b100 ,
b100 +
09
1;
b1111 '
1%
#960000
0%
#965000
0$
02
0#
06
15
0)
0.
0"
0:
b110 +
11
b110 ,
0-
0;
07
03
0/
0<
18
b0 '
b110 &
1%
#970000
0%
#975000
b111 ,
b111 +
19
1;
b1 '
1%
#980000
0%
#985000
1-
1$
12
01
1#
16
09
b1000 ,
b0 +
05
0;
17
b10 '
1%
#990000
0%
#995000
b1001 ,
b1 +
19
1;
b11 '
1%
#1000000
0%
#1005000
0#
06
09
15
b1010 ,
b10 +
01
0;
07
13
b100 '
1%
#1010000
0%
#1015000
b1011 ,
b11 +
19
1;
b101 '
1%
#1020000
0%
#1025000
11
1#
16
09
b1100 ,
b100 +
05
0;
17
b110 '
1%
#1030000
0%
#1035000
b1101 ,
b101 +
19
1;
b111 '
1%
#1040000
0%
#1045000
0$
02
0#
06
0)
0.
09
15
b110 +
11
b1110 ,
1-
0;
07
03
1/
b1000 '
1%
#1050000
0%
#1055000
b1111 ,
b111 +
19
1;
b1001 '
1%
#1060000
0%
#1065000
1)
1.
0-
1$
12
01
1#
16
09
b0 ,
b0 +
05
0;
17
b1010 '
1%
#1070000
0%
#1075000
b1 ,
b1 +
19
1;
b1011 '
1%
#1080000
0%
#1085000
0#
06
09
15
b10 ,
b10 +
01
0;
07
13
b1100 '
1%
#1090000
0%
#1095000
b11 ,
b11 +
19
1;
b1101 '
1%
#1100000
0%
#1105000
11
1#
16
09
b100 ,
b100 +
05
0;
17
b1110 '
1%
#1110000
0%
#1115000
b101 ,
b101 +
19
1;
b1111 '
1%
#1120000
0%
#1125000
0$
02
0#
06
0)
0.
15
b111 +
11
b111 ,
0-
0;
07
03
0/
1<
b0 '
b111 &
1%
#1130000
0%
#1135000
1-
1$
12
01
1#
16
05
1"
1:
b1000 ,
b0 +
09
1;
b1 '
1%
#1140000
0%
#1145000
0"
0:
19
b1001 ,
b1 +
05
0;
17
b10 '
1%
#1150000
0%
#1155000
15
1"
1:
b1010 ,
b10 +
09
1;
b11 '
1%
#1160000
0%
#1165000
0#
06
0"
0:
19
15
b1011 ,
b11 +
01
0;
07
13
b100 '
1%
#1170000
0%
#1175000
11
1#
16
05
1"
1:
b1100 ,
b100 +
09
1;
b101 '
1%
#1180000
0%
#1185000
0"
0:
19
b1101 ,
b101 +
05
0;
17
b110 '
1%
#1190000
0%
#1195000
15
1"
1:
b1110 ,
b110 +
09
1;
b111 '
1%
#1200000
0%
#1205000
0$
02
0#
06
0"
0:
0)
0.
19
15
b111 +
11
b1111 ,
1-
0;
07
03
1/
b1000 '
1%
#1210000
0%
#1215000
1)
1.
0-
1$
12
01
1#
16
05
1"
1:
b0 ,
b0 +
09
1;
b1001 '
1%
#1220000
0%
#1225000
0"
0:
19
b1 ,
b1 +
05
0;
17
b1010 '
1%
#1230000
0%
#1235000
15
1"
1:
b10 ,
b10 +
09
1;
b1011 '
1%
#1240000
0%
#1245000
0#
06
0"
0:
19
15
b11 ,
b11 +
01
0;
07
13
b1100 '
1%
#1250000
0%
#1255000
11
1#
16
05
1"
1:
b100 ,
b100 +
09
1;
b1101 '
1%
#1260000
0%
#1265000
0"
0:
19
b101 ,
b101 +
05
0;
17
b1110 '
1%
#1270000
0%
#1275000
15
1"
1:
b110 ,
b110 +
09
1;
b1111 '
1%
#1280000
0%
#1285000
0)
0.
05
b0 +
01
b1000 ,
1-
0"
0:
0#
06
0$
02
0;
07
03
0/
0<
08
04
10
b0 '
b1000 &
1%
#1290000
0%
#1295000
b1001 ,
b1 +
19
1;
b1 '
1%
#1300000
0%
#1305000
09
b1010 ,
b10 +
15
0;
17
b10 '
1%
#1310000
0%
#1315000
b1011 ,
b11 +
19
1;
b11 '
1%
#1320000
0%
#1325000
09
05
b1100 ,
b100 +
11
0;
07
13
b100 '
1%
#1330000
0%
#1335000
b1101 ,
b101 +
19
1;
b101 '
1%
#1340000
0%
#1345000
09
b1110 ,
b110 +
15
0;
17
b110 '
1%
#1350000
0%
#1355000
b1111 ,
b111 +
19
1;
b111 '
1%
#1360000
0%
#1365000
1)
1.
09
05
b0 +
01
b0 ,
0-
0;
07
03
1/
b1000 '
1%
#1370000
0%
#1375000
b1 ,
b1 +
19
1;
b1001 '
1%
#1380000
0%
#1385000
09
b10 ,
b10 +
15
0;
17
b1010 '
1%
#1390000
0%
#1395000
b11 ,
b11 +
19
1;
b1011 '
1%
#1400000
0%
#1405000
09
05
b100 ,
b100 +
11
0;
07
13
b1100 '
1%
#1410000
0%
#1415000
b101 ,
b101 +
19
1;
b1101 '
1%
#1420000
0%
#1425000
09
b110 ,
b110 +
15
0;
17
b1110 '
1%
#1430000
0%
#1435000
b111 ,
b111 +
19
1;
b1111 '
1%
#1440000
0%
#1445000
0)
0.
05
b1 +
01
b1001 ,
1-
0;
07
03
0/
1<
b0 '
b1001 &
1%
#1450000
0%
#1455000
15
1"
1:
b1010 ,
b10 +
09
1;
b1 '
1%
#1460000
0%
#1465000
01
0"
0:
0#
06
19
b1011 ,
b11 +
15
0;
17
b10 '
1%
#1470000
0%
#1475000
11
1#
16
05
1"
1:
b1100 ,
b100 +
09
1;
b11 '
1%
#1480000
0%
#1485000
0)
0.
1-
0"
0:
0#
06
0$
02
19
05
b1101 ,
b101 +
11
0;
07
13
b100 '
1%
#1490000
0%
#1495000
15
1"
1:
b1110 ,
b110 +
09
1;
b101 '
1%
#1500000
0%
#1505000
0)
0.
1-
0$
02
11
0"
0:
0#
06
19
b1111 ,
b111 +
15
0;
17
b110 '
1%
#1510000
0%
#1515000
1)
1.
0-
1$
12
01
1#
16
05
1"
1:
b0 ,
b0 +
09
1;
b111 '
1%
#1520000
0%
#1525000
0"
0:
0#
06
0$
02
19
05
b1 +
01
b1 ,
0-
0;
07
03
1/
b1000 '
1%
#1530000
0%
#1535000
15
1"
1:
b10 ,
b10 +
09
1;
b1001 '
1%
#1540000
0%
#1545000
01
0"
0:
0#
06
19
b11 ,
b11 +
15
0;
17
b1010 '
1%
#1550000
0%
#1555000
11
1#
16
05
1"
1:
b100 ,
b100 +
09
1;
b1011 '
1%
#1560000
0%
#1565000
0-
0"
0:
0#
06
0$
02
19
05
b101 ,
b101 +
11
0;
07
13
b1100 '
1%
#1570000
0%
#1575000
15
1"
1:
b110 ,
b110 +
09
1;
b1101 '
1%
#1580000
0%
#1585000
0-
0$
02
11
0"
0:
0#
06
19
b111 ,
b111 +
15
0;
17
b1110 '
1%
#1590000
0%
#1595000
1-
1$
12
01
1#
16
05
1"
1:
b1000 ,
b0 +
09
1;
b1111 '
1%
#1600000
0%
#1605000
0)
0.
0#
06
15
0$
02
0"
0:
b10 +
01
b1010 ,
1-
0;
07
03
0/
0<
18
b0 '
b1010 &
1%
#1610000
0%
#1615000
b1011 ,
b11 +
19
1;
b1 '
1%
#1620000
0%
#1625000
11
1#
16
09
b1100 ,
b100 +
05
0;
17
b10 '
1%
#1630000
0%
#1635000
b1101 ,
b101 +
19
1;
b11 '
1%
#1640000
0%
#1645000
0)
0.
1-
0#
06
0$
02
09
15
b1110 ,
b110 +
11
0;
07
13
b100 '
1%
#1650000
0%
#1655000
b1111 ,
b111 +
19
1;
b101 '
1%
#1660000
0%
#1665000
1)
1.
0-
1$
12
01
1#
16
09
b0 ,
b0 +
05
0;
17
b110 '
1%
#1670000
0%
#1675000
b1 ,
b1 +
19
1;
b111 '
1%
#1680000
0%
#1685000
0#
06
0$
02
09
15
b10 +
01
b10 ,
0-
0;
07
03
1/
b1000 '
1%
#1690000
0%
#1695000
b11 ,
b11 +
19
1;
b1001 '
1%
#1700000
0%
#1705000
11
1#
16
09
b100 ,
b100 +
05
0;
17
b1010 '
1%
#1710000
0%
#1715000
b101 ,
b101 +
19
1;
b1011 '
1%
#1720000
0%
#1725000
0-
0#
06
0$
02
09
15
b110 ,
b110 +
11
0;
07
13
b1100 '
1%
#1730000
0%
#1735000
b111 ,
b111 +
19
1;
b1101 '
1%
#1740000
0%
#1745000
1-
1$
12
01
1#
16
09
b1000 ,
b0 +
05
0;
17
b1110 '
1%
#1750000
0%
#1755000
b1001 ,
b1 +
19
1;
b1111 '
1%
#1760000
0%
#1765000
0)
0.
0#
06
0$
02
15
b11 +
01
b1011 ,
1-
0;
07
03
0/
1<
b0 '
b1011 &
1%
#1770000
0%
#1775000
11
1#
16
05
1"
1:
b1100 ,
b100 +
09
1;
b1 '
1%
#1780000
0%
#1785000
0"
0:
19
b1101 ,
b101 +
05
0;
17
b10 '
1%
#1790000
0%
#1795000
15
1"
1:
b1110 ,
b110 +
09
1;
b11 '
1%
#1800000
0%
#1805000
0#
06
0)
0.
1-
0"
0:
0$
02
19
15
b1111 ,
b111 +
11
0;
07
13
b100 '
1%
#1810000
0%
#1815000
1)
1.
0-
1$
12
01
1#
16
05
1"
1:
b0 ,
b0 +
09
1;
b101 '
1%
#1820000
0%
#1825000
0"
0:
19
b1 ,
b1 +
05
0;
17
b110 '
1%
#1830000
0%
#1835000
15
1"
1:
b10 ,
b10 +
09
1;
b111 '
1%
#1840000
0%
#1845000
0#
06
0"
0:
0$
02
19
15
b11 +
01
b11 ,
0-
0;
07
03
1/
b1000 '
1%
#1850000
0%
#1855000
11
1#
16
05
1"
1:
b100 ,
b100 +
09
1;
b1001 '
1%
#1860000
0%
#1865000
0"
0:
19
b101 ,
b101 +
05
0;
17
b1010 '
1%
#1870000
0%
#1875000
15
1"
1:
b110 ,
b110 +
09
1;
b1011 '
1%
#1880000
0%
#1885000
0#
06
0-
0"
0:
0$
02
19
15
b111 ,
b111 +
11
0;
07
13
b1100 '
1%
#1890000
0%
#1895000
1-
1$
12
01
1#
16
05
1"
1:
b1000 ,
b0 +
09
1;
b1101 '
1%
#1900000
0%
#1905000
0"
0:
19
b1001 ,
b1 +
05
0;
17
b1110 '
1%
#1910000
0%
#1915000
15
1"
1:
b1010 ,
b10 +
09
1;
b1111 '
1%
#1920000
0%
#1925000
0)
0.
0$
02
05
b100 +
11
0"
0:
0#
06
b1100 ,
1-
0;
07
03
0/
0<
08
14
b0 '
b1100 &
1%
#1930000
0%
#1935000
b1101 ,
b101 +
19
1;
b1 '
1%
#1940000
0%
#1945000
09
b1110 ,
b110 +
15
0;
17
b10 '
1%
#1950000
0%
#1955000
b1111 ,
b111 +
19
1;
b11 '
1%
#1960000
0%
#1965000
1)
1.
0-
1$
12
09
05
b0 ,
b0 +
01
0;
07
13
b100 '
1%
#1970000
0%
#1975000
b1 ,
b1 +
19
1;
b101 '
1%
#1980000
0%
#1985000
09
b10 ,
b10 +
15
0;
17
b110 '
1%
#1990000
0%
#1995000
b11 ,
b11 +
19
1;
b111 '
1%
#2000000
0%
#2005000
0$
02
09
05
b100 +
11
b100 ,
0-
0;
07
03
1/
b1000 '
1%
#2010000
0%
#2015000
b101 ,
b101 +
19
1;
b1001 '
1%
#2020000
0%
#2025000
09
b110 ,
b110 +
15
0;
17
b1010 '
1%
#2030000
0%
#2035000
b111 ,
b111 +
19
1;
b1011 '
1%
#2040000
0%
#2045000
1-
1$
12
09
05
b1000 ,
b0 +
01
0;
07
13
b1100 '
1%
#2050000
0%
#2055000
b1001 ,
b1 +
19
1;
b1101 '
1%
#2060000
0%
#2065000
09
b1010 ,
b10 +
15
0;
17
b1110 '
1%
#2070000
0%
#2075000
b1011 ,
b11 +
19
1;
b1111 '
1%
#2080000
0%
#2085000
0)
0.
0$
02
05
b101 +
11
b1101 ,
1-
0;
07
03
0/
1<
b0 '
b1101 &
1%
#2090000
0%
#2095000
15
1"
1:
b1110 ,
b110 +
09
1;
b1 '
1%
#2100000
0%
#2105000
0)
0.
1-
0$
02
11
0"
0:
0#
06
19
b1111 ,
b111 +
15
0;
17
b10 '
1%
#2110000
0%
#2115000
1)
1.
0-
1$
12
01
1#
16
05
1"
1:
b0 ,
b0 +
09
1;
b11 '
1%
#2120000
0%
#2125000
0"
0:
0#
06
19
05
b1 ,
b1 +
01
0;
07
13
b100 '
1%
#2130000
0%
#2135000
15
1"
1:
b10 ,
b10 +
09
1;
b101 '
1%
#2140000
0%
#2145000
01
0"
0:
0#
06
19
b11 ,
b11 +
15
0;
17
b110 '
1%
#2150000
0%
#2155000
11
1#
16
05
1"
1:
b100 ,
b100 +
09
1;
b111 '
1%
#2160000
0%
#2165000
0$
02
0"
0:
0#
06
19
05
b101 +
11
b101 ,
0-
0;
07
03
1/
b1000 '
1%
#2170000
0%
#2175000
15
1"
1:
b110 ,
b110 +
09
1;
b1001 '
1%
#2180000
0%
#2185000
0-
0$
02
11
0"
0:
0#
06
19
b111 ,
b111 +
15
0;
17
b1010 '
1%
#2190000
0%
#2195000
1-
1$
12
01
1#
16
05
1"
1:
b1000 ,
b0 +
09
1;
b1011 '
1%
#2200000
0%
#2205000
0"
0:
0#
06
19
05
b1001 ,
b1 +
01
0;
07
13
b1100 '
1%
#2210000
0%
#2215000
15
1"
1:
b1010 ,
b10 +
09
1;
b1101 '
1%
#2220000
0%
#2225000
01
0"
0:
0#
06
19
b1011 ,
b11 +
15
0;
17
b1110 '
1%
#2230000
0%
#2235000
11
1#
16
05
1"
1:
b1100 ,
b100 +
09
1;
b1111 '
1%
#2240000
0%
#2245000
0)
0.
0$
02
0#
06
15
0"
0:
b110 +
11
b1110 ,
1-
0;
07
03
0/
0<
18
b0 '
b1110 &
1%
#2250000
0%
#2255000
b1111 ,
b111 +
19
1;
b1 '
1%
#2260000
0%
#2265000
1)
1.
0-
1$
12
01
1#
16
09
b0 ,
b0 +
05
0;
17
b10 '
1%
#2270000
0%
#2275000
b1 ,
b1 +
19
1;
b11 '
1%
#2280000
0%
#2285000
0#
06
09
15
b10 ,
b10 +
01
0;
07
13
b100 '
1%
#2290000
0%
#2295000
b11 ,
b11 +
19
1;
b101 '
1%
#2300000
0%
#2305000
11
1#
16
09
b100 ,
b100 +
05
0;
17
b110 '
1%
#2310000
0%
#2315000
b101 ,
b101 +
19
1;
b111 '
1%
#2320000
0%
#2325000
0$
02
0#
06
09
15
b110 +
11
b110 ,
0-
0;
07
03
1/
b1000 '
1%
#2330000
0%
#2335000
b111 ,
b111 +
19
1;
b1001 '
1%
#2340000
0%
#2345000
1-
1$
12
01
1#
16
09
b1000 ,
b0 +
05
0;
17
b1010 '
1%
#2350000
0%
#2355000
b1001 ,
b1 +
19
1;
b1011 '
1%
#2360000
0%
#2365000
0#
06
09
15
b1010 ,
b10 +
01
0;
07
13
b1100 '
1%
#2370000
0%
#2375000
b1011 ,
b11 +
19
1;
b1101 '
1%
#2380000
0%
#2385000
11
1#
16
09
b1100 ,
b100 +
05
0;
17
b1110 '
1%
#2390000
0%
#2395000
b1101 ,
b101 +
19
1;
b1111 '
1%
#2400000
0%
#2405000
0)
0.
0$
02
0#
06
15
b111 +
11
b1111 ,
1-
0;
07
03
0/
1<
b0 '
b1111 &
1%
#2410000
0%
#2415000
1)
1.
0-
1$
12
01
1#
16
05
1"
1:
b0 ,
b0 +
09
1;
b1 '
1%
#2420000
0%
#2425000
0"
0:
19
b1 ,
b1 +
05
0;
17
b10 '
1%
#2430000
0%
#2435000
15
1"
1:
b10 ,
b10 +
09
1;
b11 '
1%
#2440000
0%
#2445000
0#
06
0"
0:
19
15
b11 ,
b11 +
01
0;
07
13
b100 '
1%
#2450000
0%
#2455000
11
1#
16
05
1"
1:
b100 ,
b100 +
09
1;
b101 '
1%
#2460000
0%
#2465000
0"
0:
19
b101 ,
b101 +
05
0;
17
b110 '
1%
#2470000
0%
#2475000
15
1"
1:
b110 ,
b110 +
09
1;
b111 '
1%
#2480000
0%
#2485000
0$
02
0#
06
0"
0:
19
15
b111 +
11
b111 ,
0-
0;
07
03
1/
b1000 '
1%
#2490000
0%
#2495000
1-
1$
12
01
1#
16
05
1"
1:
b1000 ,
b0 +
09
1;
b1001 '
1%
#2500000
0%
#2505000
0"
0:
19
b1001 ,
b1 +
05
0;
17
b1010 '
1%
#2510000
0%
#2515000
15
1"
1:
b1010 ,
b10 +
09
1;
b1011 '
1%
#2520000
0%
#2525000
0#
06
0"
0:
19
15
b1011 ,
b11 +
01
0;
07
13
b1100 '
1%
#2530000
0%
#2535000
11
1#
16
05
1"
1:
b1100 ,
b100 +
09
1;
b1101 '
1%
#2540000
0%
#2545000
0"
0:
19
b1101 ,
b101 +
05
0;
17
b1110 '
1%
#2550000
0%
#2555000
15
1"
1:
b1110 ,
b110 +
09
1;
b1111 '
1%
#2560000
0%
#2565000
05
b0 +
01
b0 ,
0-
0"
0:
0#
06
0$
02
0)
0.
0;
07
03
0/
0<
08
04
00
b0 '
b0 &
1%
#2570000
0%
#2575000
b1 ,
b1 +
19
1;
b1 '
1%
#2580000
0%
#2585000
09
b10 ,
b10 +
15
0;
17
b10 '
1%
#2590000
0%
#2595000
b11 ,
b11 +
19
1;
b11 '
1%
#2600000
0%
#2605000
09
05
b100 ,
b100 +
11
0;
07
13
b100 '
1%
#2610000
0%
#2615000
b101 ,
b101 +
19
1;
b101 '
1%
#2620000
0%
#2625000
09
b110 ,
b110 +
15
0;
17
b110 '
1%
#2630000
0%
#2635000
b111 ,
b111 +
19
1;
b111 '
1%
#2640000
0%
#2645000
09
05
b0 +
01
b1000 ,
1-
0;
07
03
1/
b1000 '
1%
#2650000
0%
#2655000
b1001 ,
b1 +
19
1;
b1001 '
1%
#2660000
0%
#2665000
09
b1010 ,
b10 +
15
0;
17
b1010 '
1%
#2670000
0%
#2675000
b1011 ,
b11 +
19
1;
b1011 '
1%
#2680000
0%
#2685000
09
05
b1100 ,
b100 +
11
0;
07
13
b1100 '
1%
#2690000
0%
#2695000
b1101 ,
b101 +
19
1;
b1101 '
1%
#2700000
0%
#2705000
09
b1110 ,
b110 +
15
0;
17
b1110 '
1%
#2710000
0%
#2715000
b1111 ,
b111 +
19
1;
b1111 '
1%
#2720000
0%
#2725000
05
b1 +
01
b1 ,
0-
0;
07
03
0/
1<
b0 '
b1 &
1%
#2730000
0%
#2735000
15
1"
1:
b10 ,
b10 +
09
1;
b1 '
1%
#2740000
0%
#2745000
01
0"
0:
0#
06
19
b11 ,
b11 +
15
0;
17
b10 '
1%
#2750000
0%
#2755000
11
1#
16
05
1"
1:
b100 ,
b100 +
09
1;
b11 '
1%
#2760000
0%
